codonmat2xy — codonmat2xy • distSTRING
…
    Author

    Kristian K Ullrich

    Examples

## load example sequence data
data("hiv", package="distSTRING")
#codonmat2xy(dnastring2codonmat(hiv))
hiv |> dnastring2codonmat() |> codonmat2xy()

#> Joining, by = "Codon"
#> Joining, by = "Codon"
#> Joining, by = "Codon"
#> # A tibble: 91 × 11
#> # Groups:   Codon [91]
#>    Codon     n SynSum NonSynSum IndelSum SynMean NonSynMean IndelMean
#>    <dbl> <int>  <dbl>     <dbl>    <dbl>   <dbl>      <dbl>     <dbl>
#>  1     1    78      0        40        0   0          0.513         0
#>  2     2    78      0         0        0   0          0             0
#>  3     3    78     12         0        0   0.154      0             0
#>  4     4    78     12         0        0   0.154      0             0
#>  5     5    78      0         0        0   0          0             0
#>  6     6    78      0         0        0   0          0             0
#>  7     7    78      0         0        0   0          0             0
#>  8     8    78      0         0        0   0          0             0
#>  9     9    78     22        30        0   0.282      0.385         0
#> 10    10    78      0        40        0   0          0.513         0
#> # … with 81 more rows, and 3 more variables: CumSumSynMean <dbl>,
#> #   CumSumNonSynMean <dbl>, CumSumIndelMean <dbl>
#codonmat2xy(dnastring2codonmat(hiv), threads=2)
hiv |> dnastring2codonmat() |> codonmat2xy(threads=2)

#> Joining, by = "Codon"
#> Joining, by = "Codon"
#> Joining, by = "Codon"
#> # A tibble: 91 × 11
#> # Groups:   Codon [91]
#>    Codon     n SynSum NonSynSum IndelSum SynMean NonSynMean IndelMean
#>    <dbl> <int>  <dbl>     <dbl>    <dbl>   <dbl>      <dbl>     <dbl>
#>  1     1    78      0        40        0   0          0.513         0
#>  2     2    78      0         0        0   0          0             0
#>  3     3    78     12         0        0   0.154      0             0
#>  4     4    78     12         0        0   0.154      0             0
#>  5     5    78      0         0        0   0          0             0
#>  6     6    78      0         0        0   0          0             0
#>  7     7    78      0         0        0   0          0             0
#>  8     8    78      0         0        0   0          0             0
#>  9     9    78     22        30        0   0.282      0.385         0
#> 10    10    78      0        40        0   0          0.513         0
#> # … with 81 more rows, and 3 more variables: CumSumSynMean <dbl>,
#> #   CumSumNonSynMean <dbl>, CumSumIndelMean <dbl>
…
